INDEX VERSION 1.3+/media/data_linux/development/workspace/academico/.metadata/.plugins/org.eclipse.wst.jsdt.core/indexes
2214276563.index
1900160462.index
2020247157.index
808969981.index
1579243696.index
3584256884.index
831884867.index
1867023078.index
1069351693.index
3791902494.index
3823600422.index
1661114908.index
3522471321.index
95740642.index
